<?xml version="1.0" encoding="UTF-8" standalone="no"?>
<!-- Created with Inkscape (http://www.inkscape.org/) -->

<svg
   xmlns:dc="http://purl.org/dc/elements/1.1/"
   xmlns:cc="http://creativecommons.org/ns#"
   xmlns:rdf="http://www.w3.org/1999/02/22-rdf-syntax-ns#"
   xmlns:svg="http://www.w3.org/2000/svg"
   xmlns="http://www.w3.org/2000/svg"
   xmlns:sodipodi="http://sodipodi.sourceforge.net/DTD/sodipodi-0.dtd"
   xmlns:inkscape="http://www.inkscape.org/namespaces/inkscape"
   width="210mm"
   height="297mm"
   id="svg4927"
   version="1.1"
   inkscape:version="0.48.0 r9654"
   inkscape:export-filename="C:\Users\mot\AppData\Local\Microsoft\Windows Sidebar\Gadgets\SingleHandWatch.Gadget\hand2.png"
   inkscape:export-xdpi="97.702972"
   inkscape:export-ydpi="97.702972"
   sodipodi:docname="uno24 zeiger.svg">
  <defs
     id="defs4929" />
  <sodipodi:namedview
     id="base"
     pagecolor="#ffffff"
     bordercolor="#666666"
     borderopacity="1.0"
     inkscape:pageopacity="0.0"
     inkscape:pageshadow="2"
     inkscape:zoom="4.8604651"
     inkscape:cx="390.99986"
     inkscape:cy="619.99992"
     inkscape:document-units="px"
     inkscape:current-layer="g5456"
     showgrid="false"
     inkscape:window-width="1600"
     inkscape:window-height="816"
     inkscape:window-x="-8"
     inkscape:window-y="-8"
     inkscape:window-maximized="1" />
  <metadata
     id="metadata4932">
    <rdf:RDF>
      <cc:Work
         rdf:about="">
        <dc:format>image/svg+xml</dc:format>
        <dc:type
           rdf:resource="http://purl.org/dc/dcmitype/StillImage" />
        <dc:title></dc:title>
      </cc:Work>
    </rdf:RDF>
  </metadata>
  <g
     id="g5456"
     inkscape:groupmode="layer"
     inkscape:label="Rahmen"
     style="display:inline">
    <rect
       style="fill:none;stroke:none;stroke-width:0.95883196999999998;stroke-miterlimit:4;stroke-opacity:1;stroke-dasharray:none"
       id="rect5462"
       width="12.041169"
       height="128.04117"
       x="384.97928"
       y="368.34167" />
  </g>
  <g
     inkscape:groupmode="layer"
     id="layer8"
     inkscape:label="Mitte">
    <path
       sodipodi:type="arc"
       style="fill:#ffd409;fill-opacity:1;stroke:none"
       id="path5478"
       sodipodi:cx="392.34927"
       sodipodi:cy="434.52008"
       sodipodi:rx="4.3205743"
       sodipodi:ry="4.3205743"
       d="m 396.66985,434.52008 a 4.3205743,4.3205743 0 1 1 -8.64115,0 4.3205743,4.3205743 0 1 1 8.64115,0 z"
       transform="translate(-1.3494105,-1.6816999)" />
  </g>
  <g
     inkscape:groupmode="layer"
     id="layer6"
     inkscape:label="Zeiger"
     style="display:none">
    <path
       style="fill:#ffd409;fill-opacity:1;stroke:none"
       d="m 391,377.9375 -0.90625,52.625 c -0.97318,0.36652 -1.65625,1.30489 -1.65625,2.40625 0,1.07592 0.65595,1.99129 1.59375,2.375 l -0.28125,16 2.5,0 -0.28125,-16 c 0.9378,-0.38371 1.59375,-1.29908 1.59375,-2.375 0,-1.10136 -0.68307,-2.03973 -1.65625,-2.40625 L 391,377.9375 z"
       id="path5465"
       inkscape:connector-curvature="0" />
  </g>
  <g
     inkscape:groupmode="layer"
     id="layer7"
     inkscape:label="Zeiger dick">
    <path
       style="fill:#ffd409;fill-opacity:1;stroke:none;display:inline"
       d="m 390.73782,378.44174 -2.09375,73.84375 4.75,0 -2.09375,-73.84375 -0.5625,0 z"
       id="path5470"
       inkscape:connector-curvature="0" />
  </g>
</svg>
